{
    "response": {
        "status": "ok",
        "userTier": "developer",
        "total": 2565508,
        "startIndex": 1,
        "pageSize": 10,
        "currentPage": 1,
        "pages": 256551,
        "orderBy": "newest",
        "results": [
            {
                "id": "world/live/2025/jan/28/israel-gaza-netanyahu-trump-hamas-palestinians-middle-east-latest-live-news",
                "type": "liveblog",
                "sectionId": "world",
                "sectionName": "World news",
                "webPublicationDate": "2025-01-28T09:22:26Z",
                "webTitle": "Middle East crisis live: Netanyahu planning to meet Trump next week as US president repeats aim to move Palestinians from Gaza",
                "webUrl": "https://www.theguardian.com/world/live/2025/jan/28/israel-gaza-netanyahu-trump-hamas-palestinians-middle-east-latest-live-news",
                "apiUrl": "https://content.guardianapis.com/world/live/2025/jan/28/israel-gaza-netanyahu-trump-hamas-palestinians-middle-east-latest-live-news",
                "isHosted": false,
                "pillarId": "pillar/news",
                "pillarName": "News"
            },
            {
                "id": "money/2025/jan/28/london-house-sales-brexit-foxtons-profits",
                "type": "article",
                "sectionId": "money",
                "sectionName": "Money",
                "webPublicationDate": "2025-01-28T09:17:26Z",
                "webTitle": "London house sales at highest level since before Brexit vote, says Foxtons",
                "webUrl": "https://www.theguardian.com/money/2025/jan/28/london-house-sales-brexit-foxtons-profits",
                "apiUrl": "https://content.guardianapis.com/money/2025/jan/28/london-house-sales-brexit-foxtons-profits",
                "isHosted": false,
                "pillarId": "pillar/lifestyle",
                "pillarName": "Lifestyle"
            },
            {
                "id": "business/live/2025/jan/28/global-tech-sell-off-trump-deepseek-wake-up-call-us-ai-firms-business-live",
                "type": "liveblog",
                "sectionId": "business",
                "sectionName": "Business",
                "webPublicationDate": "2025-01-28T09:15:19Z",
                "webTitle": "Global technology sell-off fades as OpenAI’s Altman vows ‘better models’ to compete with DeepSeek – business live",
                "webUrl": "https://www.theguardian.com/business/live/2025/jan/28/global-tech-sell-off-trump-deepseek-wake-up-call-us-ai-firms-business-live",
                "apiUrl": "https://content.guardianapis.com/business/live/2025/jan/28/global-tech-sell-off-trump-deepseek-wake-up-call-us-ai-firms-business-live",
                "isHosted": false,
                "pillarId": "pillar/news",
                "pillarName": "News"
            },
            {
                "id": "politics/2025/jan/28/yvette-cooper-to-reject-call-to-broaden-extremism-definition-misogyny",
                "type": "article",
                "sectionId": "politics",
                "sectionName": "Politics",
                "webPublicationDate": "2025-01-28T09:05:11Z",
                "webTitle": "Yvette Cooper to reject call to broaden extremism definition",
                "webUrl": "https://www.theguardian.com/politics/2025/jan/28/yvette-cooper-to-reject-call-to-broaden-extremism-definition-misogyny",
                "apiUrl": "https://content.guardianapis.com/politics/2025/jan/28/yvette-cooper-to-reject-call-to-broaden-extremism-definition-misogyny",
                "isHosted": false,
                "pillarId": "pillar/news",
                "pillarName": "News"
            },
            {
                "id": "us-news/2025/jan/28/trump-watchdog-firings-inspectors-general",
                "type": "article",
                "sectionId": "us-news",
                "sectionName": "US news",
                "webPublicationDate": "2025-01-28T09:00:11Z",
                "webTitle": "Trump condemned over ‘blatantly illegal’ firings of watchdog chiefs",
                "webUrl": "https://www.theguardian.com/us-news/2025/jan/28/trump-watchdog-firings-inspectors-general",
                "apiUrl": "https://content.guardianapis.com/us-news/2025/jan/28/trump-watchdog-firings-inspectors-general",
                "isHosted": false,
                "pillarId": "pillar/news",
                "pillarName": "News"
            },
            {
                "id": "film/2025/jan/28/by-the-stream-review-hong-sang-soons-likably-restrained-pastoral-comedy-of-campus-life",
                "type": "article",
                "sectionId": "film",
                "sectionName": "Film",
                "webPublicationDate": "2025-01-28T09:00:11Z",
                "webTitle": "By the Stream review – Hong Sang-soon’s likably restrained pastoral comedy of campus life",
                "webUrl": "https://www.theguardian.com/film/2025/jan/28/by-the-stream-review-hong-sang-soons-likably-restrained-pastoral-comedy-of-campus-life",
                "apiUrl": "https://content.guardianapis.com/film/2025/jan/28/by-the-stream-review-hong-sang-soons-likably-restrained-pastoral-comedy-of-campus-life",
                "isHosted": false,
                "pillarId": "pillar/arts",
                "pillarName": "Arts"
            },
            {
                "id": "stage/2025/jan/28/the-play-that-changed-my-life-your-home-in-the-west-was-an-explosive-act-of-anger",
                "type": "article",
                "sectionId": "stage",
                "sectionName": "Stage",
                "webPublicationDate": "2025-01-28T09:00:10Z",
                "webTitle": "The play that changed my life: ‘Your Home in the West was an explosive act of anger’",
                "webUrl": "https://www.theguardian.com/stage/2025/jan/28/the-play-that-changed-my-life-your-home-in-the-west-was-an-explosive-act-of-anger",
                "apiUrl": "https://content.guardianapis.com/stage/2025/jan/28/the-play-that-changed-my-life-your-home-in-the-west-was-an-explosive-act-of-anger",
                "isHosted": false,
                "pillarId": "pillar/arts",
                "pillarName": "Arts"
            },
            {
                "id": "travel/2025/jan/28/10-of-the-most-beautiful-historic-shops-in-venice",
                "type": "article",
                "sectionId": "travel",
                "sectionName": "Travel",
                "webPublicationDate": "2025-01-28T08:59:10Z",
                "webTitle": "Merchants of Venice: 10 of the city’s most beautiful historic shops",
                "webUrl": "https://www.theguardian.com/travel/2025/jan/28/10-of-the-most-beautiful-historic-shops-in-venice",
                "apiUrl": "https://content.guardianapis.com/travel/2025/jan/28/10-of-the-most-beautiful-historic-shops-in-venice",
                "isHosted": false,
                "pillarId": "pillar/lifestyle",
                "pillarName": "Lifestyle"
            },
            {
                "id": "football/2025/jan/28/football-transfer-rumours-tottenham-and-arsenal-chase-nico-williams",
                "type": "article",
                "sectionId": "football",
                "sectionName": "Football",
                "webPublicationDate": "2025-01-28T08:51:06Z",
                "webTitle": "Football transfer rumours: Tottenham and Arsenal chase Nico Williams?",
                "webUrl": "https://www.theguardian.com/football/2025/jan/28/football-transfer-rumours-tottenham-and-arsenal-chase-nico-williams",
                "apiUrl": "https://content.guardianapis.com/football/2025/jan/28/football-transfer-rumours-tottenham-and-arsenal-chase-nico-williams",
                "isHosted": false,
                "pillarId": "pillar/sport",
                "pillarName": "Sport"
            },
            {
                "id": "world/live/2025/jan/28/denmark-greenland-mette-frederiksen-donald-trump-europe-latest-live-news",
                "type": "liveblog",
                "sectionId": "world",
                "sectionName": "World news",
                "webPublicationDate": "2025-01-28T08:45:49Z",
                "webTitle": "Denmark’s prime minister to seek unified European response over Trump’s desire to ‘get’ Greenland – Europe live",
                "webUrl": "https://www.theguardian.com/world/live/2025/jan/28/denmark-greenland-mette-frederiksen-donald-trump-europe-latest-live-news",
                "apiUrl": "https://content.guardianapis.com/world/live/2025/jan/28/denmark-greenland-mette-frederiksen-donald-trump-europe-latest-live-news",
                "isHosted": false,
                "pillarId": "pillar/news",
                "pillarName": "News"
            }
        ]
    }
}